{
    "404": {
        "fr-fr": "<figure id=\"error\"><img src=\"Medias/Errors/404_background.png\" alt=\"404 background img\" /><figcaption> Nous avons un sèrieux probléme. La puce qui commande le systhéme d'épuration des pages est cassé ! Il faut absolument que tu nous trouve une autre puce. Sans elle d'ici 150 jours nous serons envahit de<br />...<p>404 - Page Not Found</p><br /></figcaption></figure>"
    },
    "Nfound": {
        "fr-fr": "La ressource demandé est introuvable: [:NFOUND:]"
    }
}
